get_unsafe: 
(∃ (x : list Z) (x0 : Z) (x1 : loc), REQUIRES [0 ≤ x0; x0 < length x] [vec_val ◁ᵥ x @ vec_t; i_val ◁ᵥ (int[i32] x0); x_val ◁ᵥ owned x1 (any[ly_size i32])] IN
                                     ENSURES [] [x1 ◁ₗ (int[i32] x !!! Z.to_nat x0); vec_val ◁ᵥ x @ vec_t] IN
                                     ret void)%I
