fsm_get: 
(∃ (x : loc) (x0 : gmap Z Z) (x1 : list item_ref) (x2 x3 : Z), REQUIRES [] [m_val ◁ᵥ owned x ((x0, x1, x2) @ fixed_size_map); key_val ◁ᵥ (int[size_t] x3)] IN
                                                               ENSURES [] [x ◁ₗ (x0, x1, x2) @ fixed_size_map] IN
                                                               ret (int[size_t] default 0 (x0 !! x3)))%I
