fsm_probe: 
(∃ (x : loc) (x0 : gmap Z Z) (x1 : list item_ref) (x2 x3 : Z), REQUIRES [] [m_val ◁ᵥ owned x ((x0, x1, x2) @ fixed_size_map); key_val ◁ᵥ (int[size_t] x3)] IN
                                                               (∀ x4 : nat, ENSURES [probe_ref x3 x1 = Some (x4, x1 !!! x4); x4 < length x1] [x ◁ₗ (x0, x1, x2) @ fixed_size_map] IN
                                                                            ret (int[size_t] x4)))%I
