bipbuf_poll: 
(∃ (x : loc) (x0 x1 x2 x3 x4 : Z),
   REQUIRES [] [me_val ◁ᵥ owned x ((x0, x1, x2, x3, x4) @ bipbuf_t)] IN
   IF (x1 = x2) THEN
     ENSURES [] [me_val ◁ᵥ owned x ((x0, x1, x2, x3, x4) @ bipbuf_t)] IN
     ret null
   ELSE
     (∃ x5 : Z,
        REQUIRES [x1 + x5 ∈ u32] [size_val ◁ᵥ (int[u32] x5)] IN
        IF (x0 < x1 + x5) THEN
          ENSURES [] [me_val ◁ᵥ owned x ((x0, x1, x2, x3, x4) @ bipbuf_t)] IN
          ret null
        ELSE
          IF (x1 + x5 = x2) THEN
            IF (1 = x4) THEN
              ENSURES [] [me_val ◁ᵥ owned x ((x0, 0, x3, 0, case (x0 - x3 < 0) 1 0) @ bipbuf_t)] IN
              ret (value[ly_size void*] x +ₗ (ly_size struct_buf + x1))
            ELSE
              REQUIRES [x3 = 0] [] IN
              ENSURES [] [me_val ◁ᵥ owned x ((x0, 0, 0, x3, case (x0 < 0 - x3) 1 x4) @ bipbuf_t)] IN
              ret (value[ly_size void*] x +ₗ (ly_size struct_buf + x1))
          ELSE
            REQUIRES [x1 + x5 < x2] [] IN
            ENSURES [] [me_val ◁ᵥ owned x ((x0, x1 + x5, x2, x3, case (x0 - x2 < x1 + x5 - x3) 1 x4) @ bipbuf_t)] IN
            ret (value[ly_size void*] x +ₗ (ly_size struct_buf + x1))))%I
