bipbuf_request: 
(∃ (x : loc) (x0 x1 x2 x3 x4 x5 : Z),
   REQUIRES [(1 ≠ x4 → x0 - x2 ∈ i32)%type; (1 = x4 → x1 - x3 ∈ i32)%type] [me_val ◁ᵥ owned x ((x0, x1, x2, x3, x4) @ bipbuf_t); size_val ◁ᵥ (int[i32] x5)] IN
   IF (case (1 = x4) (x1 - x3) (x0 - x2) < x5) THEN
     ENSURES [] [me_val ◁ᵥ owned x ((x0, x1, x2, x3, x4) @ bipbuf_t)] IN
     ret (int[i32] 0)
   ELSE
     IF (1 = x4) THEN
       ENSURES [] [me_val ◁ᵥ owned x ((x0, x1, x2, x3, x4) @ bipbuf_t)] IN
       ret (value[8%nat] x +ₗ (ly_size u8 * ly_size struct_buf + ly_size u8 * x3))
     ELSE
       ENSURES [] [me_val ◁ᵥ owned x ((x0, x1, x2, x3, x4) @ bipbuf_t)] IN
       ret (value[8%nat] x +ₗ (ly_size u8 * ly_size struct_buf + ly_size u8 * x2)))%I
