bipbuf_offer: 
(∃ (x : loc) (x0 x1 x2 x3 x4 x5 : Z),
   REQUIRES [(1 ≠ x4 → x0 - x2 ∈ i32)%type; (1 = x4 → x1 - x3 ∈ i32)%type] [me_val ◁ᵥ owned x ((x0, x1, x2, x3, x4) @ bipbuf_t); size_val ◁ᵥ (int[i32] x5)] IN
   IF (case (1 = x4) (x1 - x3) (x0 - x2) < x5) THEN
     ENSURES [] [me_val ◁ᵥ owned x ((x0, x1, x2, x3, x4) @ bipbuf_t)] IN
     ret (int[i32] 0)
   ELSE
     IF (1 = x4) THEN
       ∃ (x6 : loc) (x7 : val), REQUIRES [0 ≤ x5; ly_size struct_buf + x3 + x5 ≤ ly_size struct_buf + x0; x3 + x5 ∈ u32; x3 + x5 ≤ x1] [data_val ◁ᵥ owned x6 (value[x5] x7)] IN
                                ENSURES [] [x6 ◁ₗ (value[x5] x7); x ◁ₗ (x0, x1, x2, x3 + x5, case (x0 - x2 < x1 - (x3 + x5)) 1 x4) @ bipbuf_t] IN
                                ret (int[i32] x5)
     ELSE
       (∃ (x6 : loc) (x7 : val), REQUIRES [0 ≤ x5; ly_size struct_buf + x2 + x5 ≤ ly_size struct_buf + x0; x2 + x5 ∈ u32] [data_val ◁ᵥ owned x6 (value[x5] x7)] IN
                                 ENSURES [] [x6 ◁ₗ (value[x5] x7); x ◁ₗ (x0, x1, x2 + x5, x3, case (x0 - (x2 + x5) < x1 - x3) 1 x4) @ bipbuf_t] IN
                                 ret (int[i32] x5)))%I
