is_empty: 
(∃ (x : loc) (x0 : val), REQUIRES [] [l_val ◁ᵥ owned x (opt x0)] IN
                         ENSURES [] [x ◁ₗ opt x0] IN
                         ret (bool[u8] bool_decide (¬ not_null x0)))%I
