ten: 
(ret (int[i32] 10))
up_to_arg: 
(∃ x : Z,
   REQUIRES [0 ≤ x] [m_val ◁ᵥ (int[i32] x)] IN
   (∀ x0 : Z, ENSURES [x0 ∈ i32] [] IN
              ret (int[i32] x0)))%I
up_to_arg: 
(∃ x : Z, REQUIRES [0 ≤ x] [m_val ◁ᵥ (int[i32] x)] IN
          ret (int[i32] x))%I
ten_with_frame: 
(ret (int[i32] 10 + 0))
plus_ten: 
(∃ x : Z, REQUIRES [x < 200] [a_val ◁ᵥ (int[i32] x)] IN
          ret (int[i32] 10 + x))%I
