pop: 
(∃ (x : loc) (x0 : list X), REQUIRES [] [p_val ◁ᵥ owned x (x0 @ list_t T)] IN
                            IF (¬ ¬ DProp (x0 = [])) THEN
                              ENSURES [] [x ◁ₗ [] @ list_t T] IN
                              ret null
                            ELSE
                              (∀ (x1 : list X) (x2 : X), ENSURES [x0 = x2 :: x1] [x ◁ₗ x1 @ list_t T] IN
                                                         ret (x2 @ T)))%I
