swap_refl: 
(∃ (x : Z) (x0 : loc) (x1 : type Σ), REQUIRES [(x1 `has_size` ly_size i32)%type] [a_val ◁ᵥ (value[8%nat] x0); i_val ◁ᵥ (int[i32] x); j_val ◁ᵥ (int[i32] x); (x0 +ₗ ly_size i32 * x) ◁ₗ x1] IN
                                     ENSURES [] [(x0 +ₗ ly_size i32 * x) ◁ₗ x1] IN
                                     ret void)%I
