swap_buffer: 
(∃ x x0 x1 : Z, REQUIRES [0 ≤ x0; ly_size i32 * x0 + ly_size i32 ≤ ly_size i32 * x; 0 ≤ x1; ly_size i32 * x1 + ly_size i32 ≤ ly_size i32 * x] [a_val ◁ᵥ x @ bufR; i_val ◁ᵥ (int[i32] x0); j_val ◁ᵥ (int[i32] x1)] IN
                ENSURES [] [a_val ◁ᵥ x @ bufR] IN
                ret void)%I
