CRYPTO_clear_realloc: 
(∃ x : val,
   REQUIRES [] [str_val ◁ᵥ opt x] IN
   IF (¬ not_null x) THEN
     ∃ x0 : Z, REQUIRES [] [num_val ◁ᵥ (int[size_t] x0)] IN
               IF * THEN
                 ret null
               ELSE
                 (∀ x1 : loc, ENSURES [] [block x1 x0] IN
                              ret (owned x1 (any[x0])))
   ELSE
     (∃ x0 : Z,
        REQUIRES [] [num_val ◁ᵥ (int[size_t] x0)] IN
        IF (x0 = 0) THEN
          ∃ (x1 : Z) (x2 : loc) (x3 : Z), REQUIRES [x1 ≤ x3] [old_len_val ◁ᵥ (int[size_t] x1); x ◁ᵥ owned x2 (any[x3]); block x2 x3] IN
                                          ENSURES [] [x ◁ᵥ (value[8%nat] x2)] IN
                                          ret null
        ELSE
          (∃ x1 : Z,
             REQUIRES [] [old_len_val ◁ᵥ (int[size_t] x1)] IN
             IF (x0 < x1) THEN
               ∃ (x2 : loc) (x3 : val), REQUIRES [] [x ◁ᵥ (value[8%nat] x2); (x2 +ₗ x0) ◁ₗ (value[x1 - x0] x3)] IN
                                        ENSURES [] [x ◁ᵥ (value[8%nat] x2); (x2 +ₗ x0) ◁ₗ (zeros[x1 - x0])] IN
                                        ret (opt x)
             ELSE
               IF * THEN
                 ret null
               ELSE
                 (∃ (x2 : loc) (x3 : val), REQUIRES [] [x ◁ᵥ owned x2 (value[x1] x3); block x2 x1] IN
                                           (∀ x4 : loc, ENSURES [] [block x4 x0; x ◁ᵥ (value[8%nat] x2)] IN
                                                        ret (owned x4 (slicesT x0 [(0, x1, value[x1] x3); (x1, x0 - x1, any[x0 - x1])])))))))%I
