OPENSSL_cleanse: 
(∃ (x : loc) (x0 : Z), REQUIRES [] [ptr_val ◁ᵥ owned x (any[x0]); len_val ◁ᵥ (int[size_t] x0)] IN
                       ENSURES [] [x ◁ₗ (zeros[x0])] IN
                       ret void)%I
