BUF_MEM_new_ex: 
(∃ x : bool, REQUIRES [] [flags_val ◁ᵥ (bool[u64] x)] IN
             IF * THEN
               ENSURES [] [flags_val ◁ᵥ (bool[u64] x)] IN
               ret null
             ELSE
               ret ((0, 0, x) @ buf))%I
