BUF_MEM_grow_clean: 
(∃ (x : loc) (x0 x1 : Z),
   REQUIRES [] [str_val ◁ᵥ owned x (struct[struct_buf_mem_st] [place (x at{struct_buf_mem_st}ₗ "length"); place (x at{struct_buf_mem_st}ₗ "data"); place (x at{struct_buf_mem_st}ₗ "max"); place (x at{struct_buf_mem_st}ₗ "flags")]); x at{struct_buf_mem_st}ₗ "length" ◁ₗ (int[size_t] x0); len_val ◁ᵥ (int[size_t] x1)] IN
   IF (x0 >= x1) THEN
     ∃ x2 : val,
       REQUIRES [] [x at{struct_buf_mem_st}ₗ "data" ◁ₗ opt x2] IN
       IF not_null x2 THEN
         ∃ (x3 : loc) (x4 : val), REQUIRES [] [x2 ◁ᵥ (value[8%nat] x3); (x3 +ₗ x1) ◁ₗ (value[x0 - x1] x4)] IN
                                  ENSURES [] [x2 ◁ᵥ (value[8%nat] x3); (x3 +ₗ x1) ◁ₗ (zeros[x0 - x1]); x ◁ₗ (struct[struct_buf_mem_st] [int[size_t] x1; value[8%nat] x3; place (x at{struct_buf_mem_st}ₗ "max"); place (x at{struct_buf_mem_st}ₗ "flags")])] IN
                                  ret (int[size_t] x1)
       ELSE
         ENSURES [] [x ◁ₗ (struct[struct_buf_mem_st] [int[size_t] x1; opt x2; place (x at{struct_buf_mem_st}ₗ "max"); place (x at{struct_buf_mem_st}ₗ "flags")])] IN
         ret (int[size_t] x1)
   ELSE
     (∃ x2 : Z,
        REQUIRES [] [x at{struct_buf_mem_st}ₗ "max" ◁ₗ (int[size_t] x2)] IN
        IF (x2 >= x1) THEN
          ∃ (x3 : loc) (x4 : val), REQUIRES [] [x at{struct_buf_mem_st}ₗ "data" ◁ₗ (value[8%nat] x3); (x3 +ₗ x0) ◁ₗ (value[x1 - x0] x4)] IN
                                   ENSURES [] [(x3 +ₗ x0) ◁ₗ (zeros[x1 - x0]); x ◁ₗ (struct[struct_buf_mem_st] [int[size_t] x1; value[8%nat] x3; int[size_t] x2; place (x at{struct_buf_mem_st}ₗ "flags")])] IN
                                   ret (int[size_t] x1)
        ELSE
          IF (x1 > 1610612732) THEN
            ENSURES [] [x ◁ₗ (struct[struct_buf_mem_st] [int[size_t] x0; place (x at{struct_buf_mem_st}ₗ "data"); int[size_t] x2; place (x at{struct_buf_mem_st}ₗ "flags")])] IN
            ret (int[size_t] 0)
          ELSE
            (∃ x3 : bool,
               REQUIRES [] [x at{struct_buf_mem_st}ₗ "flags" ◁ₗ (bool[u64] x3)] IN
               IF (x3 && true = true) THEN
                 IF * THEN
                   ∃ x4 : val, REQUIRES [] [x at{struct_buf_mem_st}ₗ "data" ◁ₗ opt x4] IN
                               ENSURES [] [x ◁ₗ (struct[struct_buf_mem_st] [int[size_t] x0; opt x4; int[size_t] x2; bool[u64] x3])] IN
                               ret (int[size_t] 0)
                 ELSE
                   (∃ x4 : val,
                      REQUIRES [] [x at{struct_buf_mem_st}ₗ "data" ◁ₗ opt x4] IN
                      IF not_null x4 THEN
                        ∃ (x5 : loc) (x6 : val),
                          REQUIRES [] [x4 ◁ᵥ owned x5 (value[x0] x6); block x5 x0] IN
                          (∀ x7 : loc,
                             ENSURES [] [block x7 ((x1 + 3) `quot` 3 * 4); x4 ◁ᵥ (value[8%nat] x5); (x7 +ₗ x0 +ₗ 0 +ₗ 0) ◁ₗ (zeros[x1 - x0]);
                                         x
                                         ◁ₗ (struct[struct_buf_mem_st] [int[size_t] x1; owned x7 (slicesT ((x1 + 3) `quot` 3 * 4) [(0, x0, value[x0] x6); (x0, (x1 + 3) `quot` 3 * 4 - x0, slicesT ((x1 + 3) `quot` 3 * 4 - x0) [(0, x1 - x0, place (x7 +ₗ x0 +ₗ 0)); (x1 - x0, (x1 + 3) `quot` 3 * 4 - x0 - (x1 - x0), any[(x1 + 3) `quot` 3 * 4 - x0 - (x1 - x0)])])]); int[size_t] 
                                                                        (x1 + 3) `quot` 3 * 4; bool[u64] x3])] IN
                             ret (int[size_t] x1))
                      ELSE
                        (∀ x5 : loc,
                           ENSURES [] [block x5 ((x1 + 3) `quot` 3 * 4); x ◁ₗ (struct[struct_buf_mem_st] [int[size_t] x1; owned x5 (slicesT ((x1 + 3) `quot` 3 * 4) [(0, x0, any[x0]); (x0, x1 - x0, zeros[x1 - x0]); (x0 + (x1 - x0), (x1 + 3) `quot` 3 * 4 - (x1 - x0) - x0, any[(x1 + 3) `quot` 3 * 4 - (x1 - x0) - x0])]); int[size_t] (x1 + 3) `quot` 3 * 4; bool[u64] x3])] IN
                           ret (int[size_t] x1)))
               ELSE
                 (∃ x4 : val,
                    REQUIRES [] [x at{struct_buf_mem_st}ₗ "data" ◁ₗ opt x4] IN
                    IF (¬ not_null x4) THEN
                      IF * THEN
                        ENSURES [] [x ◁ₗ (struct[struct_buf_mem_st] [int[size_t] x0; opt x4; int[size_t] x2; bool[u64] x3])] IN
                        ret (int[size_t] 0)
                      ELSE
                        (∀ x5 : loc,
                           ENSURES [] [block x5 ((x1 + 3) `quot` 3 * 4); x ◁ₗ (struct[struct_buf_mem_st] [int[size_t] x1; owned x5 (slicesT ((x1 + 3) `quot` 3 * 4) [(0, x0, any[x0]); (x0, x1 - x0, zeros[x1 - x0]); (x0 + (x1 - x0), (x1 + 3) `quot` 3 * 4 - (x1 - x0) - x0, any[(x1 + 3) `quot` 3 * 4 - (x1 - x0) - x0])]); int[size_t] (x1 + 3) `quot` 3 * 4; bool[u64] x3])] IN
                           ret (int[size_t] x1))
                    ELSE
                      IF * THEN
                        ENSURES [] [x ◁ₗ (struct[struct_buf_mem_st] [int[size_t] x0; opt x4; int[size_t] x2; bool[u64] x3])] IN
                        ret (int[size_t] 0)
                      ELSE
                        (∃ (x5 : loc) (x6 : val),
                           REQUIRES [x2 ≤ x0] [x4 ◁ᵥ owned x5 (value[x2] x6); block x5 x2] IN
                           (∀ x7 : loc,
                              ENSURES [] [block x7 ((x1 + 3) `quot` 3 * 4); x4 ◁ᵥ (value[8%nat] x5);
                                          x
                                          ◁ₗ (struct[struct_buf_mem_st] [int[size_t] x1;
                                                                         owned x7
                                                                           (slicesT ((x1 + 3) `quot` 3 * 4)
                                                                              [(0, x2, value[x2] x6); (x2, (x1 + 3) `quot` 3 * 4 - x2, slicesT ((x1 + 3) `quot` 3 * 4 - x2) [(0, x0 - x2, any[x0 - x2]); (x0 - x2, x1 - x0, zeros[x1 - x0]); (x0 - x2 + (x1 - x0), (x1 + 3) `quot` 3 * 4 - x2 - (x1 - x0) - (x0 - x2), any[(x1 + 3) `quot` 3 * 4 - x2 - (x1 - x0) - (x0 - x2)])])]);
                                                                         int[size_t] (x1 + 3) `quot` 3 * 4; bool[u64] x3])] IN
                              ret (int[size_t] x1)))))))%I
