BUF_MEM_free: 
(∃ x : val,
   REQUIRES [] [a_val ◁ᵥ opt x] IN
   IF (¬ not_null x) THEN
     ret void
   ELSE
     (∃ (x0 : loc) (x1 : val),
        REQUIRES [] [x ◁ᵥ owned x0 (struct[struct_buf_mem_st] [place (x0 at{struct_buf_mem_st}ₗ "length"); place (x0 at{struct_buf_mem_st}ₗ "data"); place (x0 at{struct_buf_mem_st}ₗ "max"); place (x0 at{struct_buf_mem_st}ₗ "flags")]); x0 at{struct_buf_mem_st}ₗ "data" ◁ₗ opt x1] IN
        IF not_null x1 THEN
          ∃ (x2 : bool) (x3 : Z) (x4 : loc) (x5 : Z) (x6 : type Σ),
            REQUIRES [x3 ≤ x5; (x6 `has_size` ly_size size_t)%type] [x0 at{struct_buf_mem_st}ₗ "max" ◁ₗ (int[size_t] x3); x1 ◁ᵥ owned x4 (any[x5]); block x4 x5; block x0 (ly_size struct_buf_mem_st); x0 at{struct_buf_mem_st}ₗ "length" ◁ₗ x6; x0 at{struct_buf_mem_st}ₗ "flags" ◁ₗ (bool[u64] x2)] IN
            ENSURES [] [x ◁ᵥ (value[8%nat] x0); x1 ◁ᵥ (value[8%nat] x4)] IN
            ret void
        ELSE
          (∃ x2 x3 x4 : type Σ, REQUIRES [(x2 `has_size` ly_size size_t)%type; (x3 `has_size` ly_size size_t)%type; (x4 `has_size` ly_size u64)%type] [block x0 (ly_size struct_buf_mem_st); x0 at{struct_buf_mem_st}ₗ "length" ◁ₗ x2; x0 at{struct_buf_mem_st}ₗ "max" ◁ₗ x3; x0 at{struct_buf_mem_st}ₗ "flags" ◁ₗ x4] IN
                                ENSURES [] [x ◁ᵥ (value[8%nat] x0)] IN
                                ret void)))%I
