xmemdup: 
(∃ (x : Z) (x0 : loc) (x1 : val), REQUIRES [] [size_val ◁ᵥ (int[size_t] x); ptr_val ◁ᵥ owned x0 (value[x] x1)] IN
                                  (∀ x2 : loc, ENSURES [] [block x2 x; x0 ◁ₗ (value[x] x1)] IN
                                               ret (owned x2 (value[x] x1))))%I
